{
	"info": {
		"_postman_id": "359072c0-3bb0-44fc-8bc5-0cc9f0013d1b",
		"name": "SKELETON-NODEJS",
		"schema": "https://schema.getpostman.com/json/collection/v2.1.0/collection.json"
	},
	"item": [
		{
			"name": "SEQUELIZE",
			"item": [
				{
					"name": "REGISTER",
					"request": {
						"method": "POST",
						"header": [],
						"body": {
							"mode": "raw",
							"raw": "{\n    \"name\": \"Jhon Doe\",\n    \"email\": \"jhon.doe@company.id\",\n    \"gender\": \"Male\",\n    \"personal_phone_number\" : \"085723507621\",\n    \"password\" : \"123456\"\n}",
							"options": {
								"raw": {
									"language": "json"
								}
							}
						},
						"url": {
							"raw": "http://localhost:3000/users/register",
							"protocol": "http",
							"host": [
								"localhost"
							],
							"port": "3000",
							"path": [
								"users",
								"register"
							]
						}
					},
					"response": []
				},
				{
					"name": "LOGIN",
					"request": {
						"auth": {
							"type": "basic",
							"basic": [
								{
									"key": "password",
									"value": "123456",
									"type": "string"
								},
								{
									"key": "username",
									"value": "jhon.doe@company.id",
									"type": "string"
								}
							]
						},
						"method": "POST",
						"header": [],
						"url": {
							"raw": "http://localhost:3000/users/login",
							"protocol": "http",
							"host": [
								"localhost"
							],
							"port": "3000",
							"path": [
								"users",
								"login"
							]
						}
					},
					"response": []
				},
				{
					"name": "FIND BY ID",
					"request": {
						"method": "GET",
						"header": [],
						"url": {
							"raw": "http://localhost:3000/users/find?id=1",
							"protocol": "http",
							"host": [
								"localhost"
							],
							"port": "3000",
							"path": [
								"users",
								"find"
							],
							"query": [
								{
									"key": "id",
									"value": "1"
								}
							]
						}
					},
					"response": []
				},
				{
					"name": "UPDATE",
					"request": {
						"method": "PATCH",
						"header": [],
						"body": {
							"mode": "raw",
							"raw": "{\n    \"id\": \"1\",\n    \"name\": \"Jhon Doe\",\n    \"email\": \"jhon.doe@company.id\",\n    \"personal_phone_number\": \"85723507621\",\n    \"gender\": \"Male\"\n}",
							"options": {
								"raw": {
									"language": "json"
								}
							}
						},
						"url": {
							"raw": "http://localhost:3000/users/update",
							"protocol": "http",
							"host": [
								"localhost"
							],
							"port": "3000",
							"path": [
								"users",
								"update"
							]
						}
					},
					"response": []
				},
				{
					"name": "GET ALL",
					"request": {
						"method": "GET",
						"header": [],
						"url": {
							"raw": "http://localhost:3000/users/list?offset=0&limit=10",
							"protocol": "http",
							"host": [
								"localhost"
							],
							"port": "3000",
							"path": [
								"users",
								"list"
							],
							"query": [
								{
									"key": "offset",
									"value": "0"
								},
								{
									"key": "limit",
									"value": "10"
								}
							]
						}
					},
					"response": []
				},
				{
					"name": "DELETE",
					"request": {
						"method": "DELETE",
						"header": [],
						"url": {
							"raw": "http://localhost:3000/users/delete/2",
							"protocol": "http",
							"host": [
								"localhost"
							],
							"port": "3000",
							"path": [
								"users",
								"delete",
								"2"
							]
						}
					},
					"response": []
				}
			]
		},
		{
			"name": "FILE-STORAGE",
			"item": []
		}
	]
}